        graph TD
         subgraph Model_train
            Training_Dictations["Training Dictations (N=183,144)"]-->|rm unprintable chars|tks((Preproc+Tokenize))
            tks((Preproc+Tokenize))-->Unigrams
            tks((Preproc+Tokenize))-->Bigrams
            tks((Preproc+Tokenize))-->Trigrams

            Unigrams --> w2v((Train Word2Vec, 100 dimensions, 100k terms))
            Bigrams --> w2v((Train Word2Vec, 100 dimensions, 100k terms))
            Trigrams --> w2v((Train Word2Vec, 100 dimensions, 100k terms))

            w2v((Train Word2Vec, 100 dimensions, 100k terms))-->saved_model["Saved model. Matrix: dims x feature"]

           saved_model["Saved model. Matrix: dims x feature"]-->|vocabulary filtered by MetaMap semantic types|mm("Condition/Procedure terms")
           end
          subgraph Model_test
           Test_Dictation -->|rm unprintable chars|tks2((Preproc+Tokenize))
            tks2((Preproc+Tokenize))-->u[Unigrams]
            tks2((Preproc+Tokenize))-->b[Bigrams]
            tks2((Preproc+Tokenize))-->t[Trigrams]
            u[Unigrams] -->  document_features
            b[Bigrams] -->  document_features
            t[Trigrams] -->  document_features
            saved_model["Saved model. Matrix: dims x feature"] -.-> CC_Similar_vocab_items
            Chief_complaint -.-> saved_model["Saved model. Matrix: dims x feature"]

            document_features --> comp((intersection))
            CC_Similar_vocab_items --> comp((intersection))
            mm("Condition/Procedure terms") --> comp((intersection))
            comp((intersection)) --> String_match_in_document

           end 